^C:\USERS\DIMITRY\DESKTOP\CSC1228\SUB8\SUB8\SUB8\DEBUG\DECIMALBINARYCONVERSION1.OBJ|C:\USERS\DIMITRY\DESKTOP\CSC1228\SUB8\SUB8\SUB8\DEBUG\SUB8.EXE.EMBED.MANIFEST.RES
C:\USERS\DIMITRY\DESKTOP\CSC1228\SUB8\SUB8\DEBUG\SUB8.ILK
C:\USERS\DIMITRY\DESKTOP\CSC1228\SUB8\SUB8\DEBUG\SUB8.EXE
C:\USERS\DIMITRY\DESKTOP\CSC1228\SUB8\SUB8\SUB8\DEBUG\SUB8.EXE.INTERMEDIATE.MANIFEST
C:\USERS\DIMITRY\DESKTOP\CSC1228\SUB8\SUB8\DEBUG\SUB8.PDB
