^C:\USERS\DIMITRY\DESKTOP\CSC1228\SUB10\SUB10\SUB10\ACTIONREQUEST.CPP|C:\USERS\DIMITRY\DESKTOP\CSC1228\SUB10\SUB10\SUB10\CONVERTERTEST.CPP
C:\USERS\DIMITRY\DESKTOP\CSC1228\SUB10\SUB10\SUB10\DEBUG\ACTIONREQUEST.OBJ
C:\USERS\DIMITRY\DESKTOP\CSC1228\SUB10\SUB10\SUB10\DEBUG\CONVERTERTEST.OBJ
^C:\USERS\DIMITRY\DESKTOP\CSC1228\SUB10\SUB10\SUB10\ACTIONREQUEST.CPP
C:\USERS\DIMITRY\DESKTOP\CSC1228\SUB10\SUB10\SUB10\DEBUG\VC100.PDB
^C:\USERS\DIMITRY\DESKTOP\CSC1228\SUB10\SUB10\SUB10\CONVERTERTEST.CPP
C:\USERS\DIMITRY\DESKTOP\CSC1228\SUB10\SUB10\SUB10\DEBUG\VC100.PDB
C:\USERS\DIMITRY\DESKTOP\CSC1228\SUB10\SUB10\SUB10\DEBUG\CONVERTERTEST.OBJ
^C:\USERS\DIMITRY\DESKTOP\CSC1228\SUB10\SUB10\SUB10\ACTIONREQUEST.CPP|C:\USERS\DIMITRY\DESKTOP\CSC1228\SUB10\SUB10\SUB10\CONVERTER.CPP
^C:\USERS\DIMITRY\DESKTOP\CSC1228\SUB10\SUB10\SUB10\CONVERTER.CPP
C:\USERS\DIMITRY\DESKTOP\CSC1228\SUB10\SUB10\SUB10\DEBUG\VC100.PDB
