^C:\USERS\DIMITRY\DESKTOP\CSC1228\SUB10\SUB10\SUB10\CONVERTER.OBJ|C:\USERS\DIMITRY\DESKTOP\CSC1228\SUB10\SUB10\SUB10\DEBUG\ACTIONREQUEST.OBJ|C:\USERS\DIMITRY\DESKTOP\CSC1228\SUB10\SUB10\SUB10\DEBUG\CONVERTERTEST.OBJ|C:\USERS\DIMITRY\DESKTOP\CSC1228\SUB10\SUB10\SUB10\DEBUG\SUB10.EXE.EMBED.MANIFEST.RES|C:\USERS\DIMITRY\DESKTOP\CSC1228\SUB10\SUB10\SUB10\UTILITIES.OBJ
/ERRORREPORT:PROMPT /OUT:"C:\Users\Dimitry\Desktop\csc1228\Sub10\Sub10\Debug\Sub10.exe" /INCREMENTAL /NOLOGO kernel32.lib user32.lib gdi32.lib winspool.lib comdlg32.lib advapi32.lib shell32.lib ole32.lib oleaut32.lib uuid.lib odbc32.lib odbccp32.lib /MANIFEST /ManifestFile:"Debug\Sub10.exe.intermediate.manifest" /MANIFESTUAC:"level='asInvoker' uiAccess='false'" /DEBUG /PDB:"C:\Users\Dimitry\Desktop\csc1228\Sub10\Sub10\Debug\Sub10.pdb" /SUBSYSTEM:CONSOLE /TLBID:1 /DYNAMICBASE /NXCOMPAT /IMPLIB:"C:\Users\Dimitry\Desktop\csc1228\Sub10\Sub10\Debug\Sub10.lib" /MACHINE:X86 Debug\Sub10.exe.embed.manifest.res
Debug\ActionRequest.obj
Debug\ConverterTest.obj
Converter.obj
utilities.obj
